…
``` r
aislesnumber<-instacart |>
  group_by(aisle) |># groups the instacart dataset by aisle.
  summarize(number = n())|>#count the number of order in each aisle.
  arrange(desc(number))
```

``` r
aislesnumber
```

    ## # A tibble: 134 × 2
    ##    aisle                         number
    ##    <chr>                          <int>
    ##  1 fresh vegetables              150609
    ##  2 fresh fruits                  150473
    ##  3 packaged vegetables fruits     78493
    ##  4 yogurt                         55240
    ##  5 packaged cheese                41699
    ##  6 water seltzer sparkling water  36617
    ##  7 milk                           32644
    ##  8 chips pretzels                 31269
    ##  9 soy lactosefree                26240
    ## 10 bread                          23635
    ## # ℹ 124 more rows
…
    ## `summarise()` has grouped output by 'year'. You can override using the
    ## `.groups` argument.

``` r
exresponse
```

    ## # A tibble: 443 × 3
    ## # Groups:   state [51]
    ##     year state meanvalue
    ##    <int> <chr>     <dbl>
    ##  1  2002 AK         27.9
    ##  2  2002 AL         18.5
    ##  3  2002 AR         24.1
    ##  4  2002 AZ         24.1
    ##  5  2002 CA         22.7
    ##  6  2002 CO         23.1
    ##  7  2002 CT         29.1
    ##  8  2002 DC         29.3
    ##  9  2002 DE         20.9
    ## 10  2002 FL         25.7
    ## # ℹ 433 more rows
…
``` r
participants= read_csv(file = "./nhanes_covar.csv",skip =4,n_max = 250)|>
   janitor::clean_names()|>
  mutate(sex,sex=ifelse(sex==1,"Male","Female"))|>
  mutate(sex,sex=as_factor(sex))|>
  filter(age>=21)|>
  drop_na()|>
  mutate(education=as.character(education))|>
  mutate(education = recode(education,  "1" = "Low","2" = "Medium","3" = "High"))|>
  mutate(education=factor(education, levels = c("Low", "Medium", "High"), order= TRUE))

participants
```

    ## # A tibble: 228 × 5
    ##     seqn sex      age   bmi education
    ##    <dbl> <fct>  <dbl> <dbl> <ord>    
    ##  1 62161 Male      22  23.3 Medium   
    ##  2 62164 Female    44  23.2 High     
    ##  3 62169 Male      21  20.1 Medium   
    ##  4 62174 Male      80  33.9 High     
    ##  5 62177 Male      51  20.1 Medium   
    ##  6 62178 Male      80  28.5 Medium   
    ##  7 62180 Male      35  27.9 High     
    ##  8 62184 Male      26  22.1 Medium   
    ##  9 62189 Female    30  22.4 High     
    ## 10 62199 Male      57  28   High     
    ## # ℹ 218 more rows
…
``` r
summimsdata<-
  inner_join(mimsdata,sumactivity,by= "seqn")|>
  relocate(seqn,sex,age,education,totalactivity,bmi)
summimsdata
```

    ## # A tibble: 228 × 1,446
    ##     seqn sex      age education totalactivity   bmi  min1   min2   min3  min4
    ##    <dbl> <fct>  <dbl> <ord>             <dbl> <dbl> <dbl>  <dbl>  <dbl> <dbl>
    ##  1 62161 Male      22 Medium           13194.  23.3 1.11  3.12   1.47   0.938
    ##  2 62164 Female    44 High             13411.  23.2 1.92  1.67   2.38   0.935
    ##  3 62169 Male      21 Medium            9991.  20.1 5.85  5.18   4.76   6.48 
    ##  4 62174 Male      80 High              8579.  33.9 5.42  3.48   3.72   3.81 
    ##  5 62177 Male      51 Medium           11918.  20.1 6.14  8.06   9.99   6.60 
    ##  6 62178 Male      80 Medium            7489.  28.5 0.167 0.429  0.131  1.20 
    ##  7 62180 Male      35 High             14205.  27.9 0.039 0      0      0    
    ##  8 62184 Male      26 Medium           13599.  22.1 1.55  2.81   3.86   4.76 
    ##  9 62189 Female    30 High             18551.  22.4 2.81  0.195  0.163  0    
    ## 10 62199 Male      57 High             14548.  28   0.031 0.0359 0.0387 0.079
    ## # ℹ 218 more rows
    ## # ℹ 1,436 more variables: min5 <dbl>, min6 <dbl>, min7 <dbl>, min8 <dbl>,
    ## #   min9 <dbl>, min10 <dbl>, min11 <dbl>, min12 <dbl>, min13 <dbl>,
    ## #   min14 <dbl>, min15 <dbl>, min16 <dbl>, min17 <dbl>, min18 <dbl>,
    ## #   min19 <dbl>, min20 <dbl>, min21 <dbl>, min22 <dbl>, min23 <dbl>,
    ## #   min24 <dbl>, min25 <dbl>, min26 <dbl>, min27 <dbl>, min28 <dbl>,
    ## #   min29 <dbl>, min30 <dbl>, min31 <dbl>, min32 <dbl>, min33 <dbl>, …
…
Comment on your plot.

### Three-panel plot that shows the 24-hour activity time

``` r
wholedayactivity=summimsdata|>
  group_by(education,sex)|>
  pivot_longer(min1:min1440,names_to = "time",values_to = "activity")|>
  group_by(seqn)
wholedayactivity  
```

    ## # A tibble: 328,320 × 8
    ## # Groups:   seqn [228]
    ##     seqn sex     age education totalactivity   bmi time  activity
    ##    <dbl> <fct> <dbl> <ord>             <dbl> <dbl> <chr>    <dbl>
    ##  1 62161 Male     22 Medium           13194.  23.3 min1     1.11 
    ##  2 62161 Male     22 Medium           13194.  23.3 min2     3.12 
    ##  3 62161 Male     22 Medium           13194.  23.3 min3     1.47 
    ##  4 62161 Male     22 Medium           13194.  23.3 min4     0.938
    ##  5 62161 Male     22 Medium           13194.  23.3 min5     1.60 
    ##  6 62161 Male     22 Medium           13194.  23.3 min6     0.145
    ##  7 62161 Male     22 Medium           13194.  23.3 min7     2.10 
    ##  8 62161 Male     22 Medium           13194.  23.3 min8     0.509
    ##  9 62161 Male     22 Medium           13194.  23.3 min9     1.63 
    ## 10 62161 Male     22 Medium           13194.  23.3 min10    1.20 
    ## # ℹ 328,310 more rows
…
